C:\GitLabContractTest\providertest\service-provider\target\generated-test-sources\contracts\com\cas\cdc\ContractVerifierTest.java
C:\GitLabContractTest\providertest\service-provider\src\test\java\com\cas\cdc\ProviderApplicationTests.java
C:\GitLabContractTest\providertest\service-provider\src\test\java\com\cas\cdc\CdcBaseClass.java
